{
    "version": 8,
    "name": "Empty style",
    "sources": {},
    "layers": [
        {
          "id": "background",
          "type": "background",
          "paint": {
            "background-color": "rgba(0,0,0,0)"
          }
        }
      ],
    "glyphs": "http://fonts.openmaptiles.org/{fontstack}/{range}.pbf"
}
